…
``` r
#Create a dataframe where wind speeds greater than 250 mph are removed 

nycflights2<- nycflights13::weather %>%
  filter (wind_speed < 250)
print (nycflights2)
```

    ## # A tibble: 26,126 × 15
    ##    origin  year month   day  hour  temp  dewp humid wind_dir wind_speed
    ##     <chr> <dbl> <dbl> <int> <int> <dbl> <dbl> <dbl>    <dbl>      <dbl>
    ## 1     EWR  2013     1     1     0 37.04 21.92 53.97      230   10.35702
    ## 2     EWR  2013     1     1     1 37.04 21.92 53.97      230   13.80936
    ## 3     EWR  2013     1     1     2 37.94 21.92 52.09      230   12.65858
    ## 4     EWR  2013     1     1     3 37.94 23.00 54.51      230   13.80936
    ## 5     EWR  2013     1     1     4 37.94 24.08 57.04      240   14.96014
    ## 6     EWR  2013     1     1     6 39.02 26.06 59.37      270   10.35702
    ## 7     EWR  2013     1     1     7 39.02 26.96 61.63      250    8.05546
    ## 8     EWR  2013     1     1     8 39.02 28.04 64.43      240   11.50780
    ## 9     EWR  2013     1     1     9 39.92 28.04 62.21      250   12.65858
    ## 10    EWR  2013     1     1    10 39.02 28.04 64.43      260   12.65858
    ## # ... with 26,116 more rows, and 5 more variables: wind_gust <dbl>,
    ## #   precip <dbl>, pressure <dbl>, visib <dbl>, time_hour <dttm>
``` r
#See how many points are removed: compare with weather, 4 outliers removed 
```

What direction has the highest median speed at each airport? Make a table and a plot of median wind speed by direction, for each airport.

``` r
#Table of median wind speed by direction, for earch airport 
median.ws<- nycflights2 %>%
  group_by (origin, wind_dir) %>%
  summarise (medianwind = (median(wind_speed, na.rm= TRUE)))
median.ws
```

    ## Source: local data frame [114 x 3]
    ## Groups: origin [?]
    ## 
    ##    origin wind_dir medianwind
    ##     <chr>    <dbl>      <dbl>
    ## 1     EWR        0    0.00000
    ## 2     EWR       10    9.20624
    ## 3     EWR       20    9.20624
    ## 4     EWR       30    9.20624
    ## 5     EWR       40   10.35702
    ## 6     EWR       50    8.05546
    ## 7     EWR       60    8.05546
    ## 8     EWR       70    6.90468
    ## 9     EWR       80    6.90468
    ## 10    EWR       90    6.32929
    ## # ... with 104 more rows
…
